EESchema Schematic File Version 4
EELAYER 30 0
EELAYER END
$Descr A4 11693 8268
encoding utf-8
Sheet 1 1
Title ""
Date ""
Rev ""
Comp ""
Comment1 ""
Comment2 ""
Comment3 ""
Comment4 ""
$EndDescr
$Comp
L MCU_Microchip_ATtiny:ATtiny13V-10SU U1
U 1 1 5DED7089
P 4450 3050
F 0 "U1" H 3920 3096 50  0000 R CNN
F 1 "ATtiny13V-10SU" H 3920 3005 50  0000 R CNN
F 2 "CustomPCD:SOIC-8S2" H 4450 3050 50  0001 C CIN
F 3 "http://ww1.microchip.com/downloads/en/DeviceDoc/doc2535.pdf" H 4450 3050 50  0001 C CNN
	1    4450 3050
	1    0    0    -1  
$EndComp
$Comp
L power:+3V3 #PWR05
U 1 1 5DED7EA2
P 4450 2000
F 0 "#PWR05" H 4450 1850 50  0001 C CNN
F 1 "+3V3" H 4465 2173 50  0000 C CNN
F 2 "" H 4450 2000 50  0001 C CNN
F 3 "" H 4450 2000 50  0001 C CNN
	1    4450 2000
	1    0    0    -1  
$EndComp
$Comp
L power:GND #PWR06
U 1 1 5DED835E
P 4450 4600
F 0 "#PWR06" H 4450 4350 50  0001 C CNN
F 1 "GND" H 4455 4427 50  0000 C CNN
F 2 "" H 4450 4600 50  0001 C CNN
F 3 "" H 4450 4600 50  0001 C CNN
	1    4450 4600
	1    0    0    -1  
$EndComp
$Comp
L Device:Battery_Cell BT1
U 1 1 5DED89C4
P 2100 3050
F 0 "BT1" H 2218 3146 50  0000 L CNN
F 1 "Battery_Cell 3V3" H 2218 3055 50  0000 L CNN
F 2 "Battery_Holders:Keystone_106_1x20mm-CoinCell" V 2100 3110 50  0001 C CNN
F 3 "~" V 2100 3110 50  0001 C CNN
	1    2100 3050
	1    0    0    -1  
$EndComp
$Comp
L Switch:SW_Push SW1
U 1 1 5DEDC36B
P 4750 3950
F 0 "SW1" H 4750 4235 50  0000 C CNN
F 1 "SW_Push" H 4750 4144 50  0000 C CNN
F 2 "Buttons_Switches_THT:SW_PUSH_6mm" H 4750 4150 50  0001 C CNN
F 3 "~" H 4750 4150 50  0001 C CNN
	1    4750 3950
	1    0    0    -1  
$EndComp
$Comp
L Device:LED D1
U 1 1 5DEDD070
P 6350 2450
F 0 "D1" H 6343 2195 50  0000 C CNN
F 1 "LED - red" H 6343 2286 50  0000 C CNN
F 2 "LEDs:LED_0805_HandSoldering" H 6350 2450 50  0001 C CNN
F 3 "~" H 6350 2450 50  0001 C CNN
	1    6350 2450
	1    0    0    1   
$EndComp
$Comp
L Device:LED D2
U 1 1 5DEDE462
P 6350 2850
F 0 "D2" H 6343 2595 50  0000 C CNN
F 1 "LED - blick" H 6343 2686 50  0000 C CNN
F 2 "LEDs:LED_0805_HandSoldering" H 6350 2850 50  0001 C CNN
F 3 "~" H 6350 2850 50  0001 C CNN
	1    6350 2850
	1    0    0    1   
$EndComp
$Comp
L Device:LED D3
U 1 1 5DEDE98F
P 6350 3250
F 0 "D3" H 6343 2995 50  0000 C CNN
F 1 "LED - green" H 6343 3086 50  0000 C CNN
F 2 "LEDs:LED_0805_HandSoldering" H 6350 3250 50  0001 C CNN
F 3 "~" H 6350 3250 50  0001 C CNN
	1    6350 3250
	1    0    0    1   
$EndComp
$Comp
L Device:LED D4
U 1 1 5DEDEE3E
P 6350 3650
F 0 "D4" H 6343 3395 50  0000 C CNN
F 1 "LED - yellow" H 6343 3486 50  0000 C CNN
F 2 "LEDs:LED_0805_HandSoldering" H 6350 3650 50  0001 C CNN
F 3 "~" H 6350 3650 50  0001 C CNN
	1    6350 3650
	1    0    0    1   
$EndComp
$Comp
L power:+3V3 #PWR07
U 1 1 5DEDF699
P 7200 1650
F 0 "#PWR07" H 7200 1500 50  0001 C CNN
F 1 "+3V3" H 7215 1823 50  0000 C CNN
F 2 "" H 7200 1650 50  0001 C CNN
F 3 "" H 7200 1650 50  0001 C CNN
	1    7200 1650
	1    0    0    -1  
$EndComp
$Comp
L Device:C C1
U 1 1 5DEE49F8
P 1500 3000
F 0 "C1" H 1615 3046 50  0000 L CNN
F 1 "C 470p" H 1615 2955 50  0000 L CNN
F 2 "Capacitors_SMD:C_0805_HandSoldering" H 1538 2850 50  0001 C CNN
F 3 "~" H 1500 3000 50  0001 C CNN
	1    1500 3000
	1    0    0    -1  
$EndComp
$Comp
L power:GND #PWR04
U 1 1 5DEE6E82
P 2100 3550
F 0 "#PWR04" H 2100 3300 50  0001 C CNN
F 1 "GND" H 2105 3377 50  0000 C CNN
F 2 "" H 2100 3550 50  0001 C CNN
F 3 "" H 2100 3550 50  0001 C CNN
	1    2100 3550
	1    0    0    -1  
$EndComp
$Comp
L power:+3V3 #PWR03
U 1 1 5DEE730D
P 2100 2450
F 0 "#PWR03" H 2100 2300 50  0001 C CNN
F 1 "+3V3" H 2115 2623 50  0000 C CNN
F 2 "" H 2100 2450 50  0001 C CNN
F 3 "" H 2100 2450 50  0001 C CNN
	1    2100 2450
	1    0    0    -1  
$EndComp
Wire Wire Line
	4450 3650 4450 3950
Wire Wire Line
	5050 3250 5300 3250
Wire Wire Line
	5300 3250 5300 2300
$Comp
L Device:R R1
U 1 1 5DEEC503
P 4750 2300
F 0 "R1" V 4543 2300 50  0000 C CNN
F 1 "R 4k7" V 4634 2300 50  0000 C CNN
F 2 "Resistors_SMD:R_0805_HandSoldering" V 4680 2300 50  0001 C CNN
F 3 "~" H 4750 2300 50  0001 C CNN
	1    4750 2300
	0    1    1    0   
$EndComp
Wire Wire Line
	4900 2300 5300 2300
Wire Wire Line
	4600 2300 4450 2300
Wire Wire Line
	4450 2300 4450 2000
Wire Wire Line
	5050 2850 5200 2850
Wire Wire Line
	4550 3950 4450 3950
Connection ~ 4450 3950
Wire Wire Line
	5200 3950 4950 3950
Wire Wire Line
	5200 2850 5200 3950
Wire Wire Line
	5050 2750 5600 2750
Wire Wire Line
	5600 2750 5600 2450
Wire Wire Line
	5600 2450 6200 2450
Wire Wire Line
	5050 2950 5800 2950
Wire Wire Line
	5800 2950 5800 2850
Wire Wire Line
	5800 2850 6200 2850
Wire Wire Line
	5050 3050 5800 3050
Wire Wire Line
	5800 3050 5800 3250
Wire Wire Line
	5800 3250 6200 3250
Wire Wire Line
	5050 3150 5600 3150
Wire Wire Line
	5600 3150 5600 3650
Wire Wire Line
	5600 3650 6200 3650
$Comp
L Device:C C2
U 1 1 5DF0F43E
P 4750 4300
F 0 "C2" V 4498 4300 50  0000 C CNN
F 1 "C 470p" V 4589 4300 50  0000 C CNN
F 2 "Capacitors_SMD:C_0805_HandSoldering" H 4788 4150 50  0001 C CNN
F 3 "~" H 4750 4300 50  0001 C CNN
	1    4750 4300
	0    1    1    0   
$EndComp
Wire Wire Line
	4450 3950 4450 4300
Connection ~ 4450 4300
Wire Wire Line
	4450 4300 4450 4600
Wire Wire Line
	4900 4300 5200 4300
Wire Wire Line
	5200 4300 5200 3950
Connection ~ 5200 3950
Wire Wire Line
	4450 4300 4600 4300
Wire Wire Line
	2100 2650 2100 2850
Wire Wire Line
	2100 3400 2100 3150
Wire Wire Line
	1500 2650 1500 2850
Wire Wire Line
	1500 2650 2100 2650
Wire Wire Line
	1500 3400 1500 3150
Wire Wire Line
	1500 3400 2100 3400
$Comp
L Device:R R2
U 1 1 5DF1FAA7
P 6850 2450
F 0 "R2" V 6643 2450 50  0000 C CNN
F 1 "R 68R" V 6734 2450 50  0000 C CNN
F 2 "Resistors_SMD:R_0805_HandSoldering" V 6780 2450 50  0001 C CNN
F 3 "~" H 6850 2450 50  0001 C CNN
	1    6850 2450
	0    1    1    0   
$EndComp
$Comp
L Device:R R3
U 1 1 5DF1FEB3
P 6850 3650
F 0 "R3" V 6643 3650 50  0000 C CNN
F 1 "R 68R" V 6734 3650 50  0000 C CNN
F 2 "Resistors_SMD:R_0805_HandSoldering" V 6780 3650 50  0001 C CNN
F 3 "~" H 6850 3650 50  0001 C CNN
	1    6850 3650
	0    1    1    0   
$EndComp
Wire Wire Line
	6700 3650 6500 3650
Wire Wire Line
	7200 3650 7000 3650
Wire Wire Line
	7200 1650 7200 2450
Wire Wire Line
	7000 2450 7200 2450
Connection ~ 7200 2450
Wire Wire Line
	7200 2450 7200 2850
Wire Wire Line
	6500 2450 6700 2450
Wire Wire Line
	6500 2850 7200 2850
Connection ~ 7200 2850
Wire Wire Line
	7200 2850 7200 3250
Wire Wire Line
	6500 3250 7200 3250
Connection ~ 7200 3250
Wire Wire Line
	7200 3250 7200 3650
Wire Wire Line
	2100 2650 2100 2450
Connection ~ 2100 2650
Wire Wire Line
	4450 2300 4450 2450
Connection ~ 4450 2300
Wire Wire Line
	2100 3550 2100 3400
Connection ~ 2100 3400
$Comp
L power:+3V3 #PWR01
U 1 1 5DF312DF
P 1600 1400
F 0 "#PWR01" H 1600 1250 50  0001 C CNN
F 1 "+3V3" H 1615 1573 50  0000 C CNN
F 2 "" H 1600 1400 50  0001 C CNN
F 3 "" H 1600 1400 50  0001 C CNN
	1    1600 1400
	1    0    0    -1  
$EndComp
$Comp
L power:GND #PWR02
U 1 1 5DF31746
P 1950 1600
F 0 "#PWR02" H 1950 1350 50  0001 C CNN
F 1 "GND" H 1955 1427 50  0000 C CNN
F 2 "" H 1950 1600 50  0001 C CNN
F 3 "" H 1950 1600 50  0001 C CNN
	1    1950 1600
	1    0    0    -1  
$EndComp
$Comp
L power:PWR_FLAG #FLG02
U 1 1 5DF31FAE
P 1950 1400
F 0 "#FLG02" H 1950 1475 50  0001 C CNN
F 1 "PWR_FLAG" H 1950 1573 50  0000 C CNN
F 2 "" H 1950 1400 50  0001 C CNN
F 3 "~" H 1950 1400 50  0001 C CNN
	1    1950 1400
	1    0    0    -1  
$EndComp
$Comp
L power:PWR_FLAG #FLG01
U 1 1 5DF32359
P 1600 1600
F 0 "#FLG01" H 1600 1675 50  0001 C CNN
F 1 "PWR_FLAG" H 1600 1773 50  0000 C CNN
F 2 "" H 1600 1600 50  0001 C CNN
F 3 "~" H 1600 1600 50  0001 C CNN
	1    1600 1600
	1    0    0    1   
$EndComp
Wire Wire Line
	1950 1400 1950 1600
Wire Wire Line
	1600 1600 1600 1400
$EndSCHEMATC
